{
  "success": true,
  "products": [
    {
      "dimensions": {
        "length": 0,
        "width": 0,
        "height": 0
      },
      "_id": "6a5d9dfe711099e370f40889",
      "name": "Xylphones",
      "slug": "xylphones",
      "description": "qwertyuio",
      "category": {
        "_id": "6a5d9cba711099e370f40873",
        "name": "Xylphones",
        "slug": "xylphones"
      },
      "price": 300,
      "compareAtPrice": 300,
      "subCategory": "6a5d9cf4711099e370f40877",
      "sku": "XW001",
      "ageGroup": [],
      "toyType": [],
      "skillDevelopment": [],
      "theme": [],
      "seoTitle": "",
      "seoDescription": "",
      "isActive": true,
      "barcode": "",
      "shortDescription": "",
      "costPrice": 0,
      "taxPercent": 0,
      "hsnCode": "",
      "shippingWeight": 0,
      "shippingClass": "",
      "minOrderQty": 1,
      "lowStockAlert": 5,
      "isFeatured": false,
      "isBestSeller": false,
      "isNewArrival": false,
      "isRecommended": false,
      "additionalInfo": [],
      "metaKeywords": [],
      "tags": [],
      "relatedProducts": [],
      "crossSellProducts": [],
      "upSellProducts": [],
      "isArchived": false,
      "isDeleted": false,
      "createdBy": "6a5af6ef5f4320a18f2fe4e0",
      "images": [
        {
          "url": "https://res.cloudinary.com/wcu2rrfb/image/upload/v1784520181/products/images/iodsjzhlsmvp1t5c1cgm.jpg",
          "displayOrder": 1
        },
        {
          "url": "https://res.cloudinary.com/wcu2rrfb/image/upload/v1784520180/products/images/pqknarpk8xpejfe0pmad.jpg",
          "displayOrder": 2
        },
        {
          "url": "https://res.cloudinary.com/wcu2rrfb/image/upload/v1784520180/products/images/v5tpftebtsp4ydr8ta9v.jpg",
          "displayOrder": 3
        },
        {
          "url": "https://res.cloudinary.com/wcu2rrfb/image/upload/v1784520181/products/images/avwcwpuxzw9omuu7vb8p.jpg",
          "displayOrder": 4
        }
      ],
      "variants": [],
      "ageColors": [],
      "createdAt": "2026-07-20T04:03:10.768Z",
      "updatedAt": "2026-07-20T04:03:10.768Z",
      "__v": 0,
      "effectivePrice": 300,
      "basePrice": 300,
      "discountPrice": 280,
      "totalStock": 30,
      "isLowStock": false,
      "variantsCount": 1,
      "inventory": null,
      "averageRating": 0,
      "reviewCount": 0
    },
    {
      "dimensions": {
        "length": 0,
        "width": 0,
        "height": 0
      },
      "_id": "6a5d9dad711099e370f40884",
      "name": "Dragon",
      "slug": "dragon",
      "description": "qwertyui",
      "category": {
        "_id": "6a5d9cd6711099e370f40875",
        "name": "dragon",
        "slug": "dragon"
      },
      "price": 400,
      "compareAtPrice": 400,
      "subCategory": "6a5d9d03711099e370f40879",
      "sku": "DW001",
      "ageGroup": [],
      "toyType": [],
      "skillDevelopment": [],
      "theme": [],
      "seoTitle": "",
      "seoDescription": "",
      "isActive": true,
      "barcode": "",
      "shortDescription": "",
      "costPrice": 0,
      "taxPercent": 0,
      "hsnCode": "",
      "shippingWeight": 0,
      "shippingClass": "",
      "minOrderQty": 1,
      "lowStockAlert": 5,
      "isFeatured": false,
      "isBestSeller": false,
      "isNewArrival": false,
      "isRecommended": false,
      "additionalInfo": [],
      "metaKeywords": [],
      "tags": [],
      "relatedProducts": [],
      "crossSellProducts": [],
      "upSellProducts": [],
      "isArchived": false,
      "isDeleted": false,
      "createdBy": "6a5af6ef5f4320a18f2fe4e0",
      "images": [
        {
          "_id": "6a5da4c533cfe18be1851c04",
          "product": "6a5d9dad711099e370f40884",
          "url": "https://res.cloudinary.com/wcu2rrfb/image/upload/v1784520074/products/images/c30af9nfuwrvc2ezrnhp.jpg",
          "altText": "",
          "displayOrder": 1,
          "isThumbnail": false,
          "resource_type": "image",
          "__v": 0,
          "createdAt": "2026-07-20T04:32:05.696Z",
          "updatedAt": "2026-07-20T04:32:05.696Z"
        },
        {
          "_id": "6a5da4c533cfe18be1851c05",
          "product": "6a5d9dad711099e370f40884",
          "url": "https://res.cloudinary.com/wcu2rrfb/image/upload/v1784520094/products/images/engkb993pgp72hvshgij.jpg",
          "altText": "",
          "displayOrder": 2,
          "isThumbnail": false,
          "resource_type": "image",
          "__v": 0,
          "createdAt": "2026-07-20T04:32:05.696Z",
          "updatedAt": "2026-07-20T04:32:05.696Z"
        },
        {
          "_id": "6a5da4c533cfe18be1851c06",
          "product": "6a5d9dad711099e370f40884",
          "url": "https://res.cloudinary.com/wcu2rrfb/image/upload/v1784520095/products/images/lzydnu7dibqq6yk7q8oi.jpg",
          "altText": "",
          "displayOrder": 3,
          "isThumbnail": false,
          "resource_type": "image",
          "__v": 0,
          "createdAt": "2026-07-20T04:32:05.696Z",
          "updatedAt": "2026-07-20T04:32:05.696Z"
        },
        {
          "_id": "6a5da4c533cfe18be1851c07",
          "product": "6a5d9dad711099e370f40884",
          "url": "https://res.cloudinary.com/wcu2rrfb/image/upload/v1784520094/products/images/hmmazdroygvpojov7qlz.jpg",
          "altText": "",
          "displayOrder": 4,
          "isThumbnail": false,
          "resource_type": "image",
          "__v": 0,
          "createdAt": "2026-07-20T04:32:05.696Z",
          "updatedAt": "2026-07-20T04:32:05.696Z"
        }
      ],
      "variants": [],
      "ageColors": [],
      "createdAt": "2026-07-20T04:01:49.732Z",
      "updatedAt": "2026-07-20T04:31:42.428Z",
      "__v": 0,
      "updatedBy": "6a5af6ef5f4320a18f2fe4e0",
      "effectivePrice": 400,
      "basePrice": 400,
      "discountPrice": 280,
      "totalStock": 4,
      "isLowStock": false,
      "variantsCount": 2,
      "inventory": null,
      "averageRating": 0,
      "reviewCount": 0
    },
    {
      "dimensions": {
        "length": 0,
        "width": 0,
        "height": 0
      },
      "_id": "6a5d9c9d711099e370f4086e",
      "name": "Bus",
      "slug": "bus",
      "description": "qwertyuio",
      "category": {
        "_id": "6a5d9b4c711099e370f40846",
        "name": "bus",
        "slug": "bus"
      },
      "price": 300,
      "compareAtPrice": 300,
      "subCategory": "6a5d9b77711099e370f4084b",
      "sku": "BW001",
      "ageGroup": [],
      "toyType": [],
      "skillDevelopment": [],
      "theme": [],
      "seoTitle": "",
      "seoDescription": "",
      "isActive": true,
      "barcode": "",
      "shortDescription": "",
      "costPrice": 0,
      "taxPercent": 0,
      "hsnCode": "",
      "shippingWeight": 0,
      "shippingClass": "",
      "minOrderQty": 1,
      "lowStockAlert": 5,
      "isFeatured": false,
      "isBestSeller": false,
      "isNewArrival": false,
      "isRecommended": false,
      "additionalInfo": [],
      "metaKeywords": [],
      "tags": [],
      "relatedProducts": [],
      "crossSellProducts": [],
      "upSellProducts": [],
      "isArchived": false,
      "isDeleted": false,
      "createdBy": "6a5af6ef5f4320a18f2fe4e0",
      "images": [
        {
          "url": "https://res.cloudinary.com/wcu2rrfb/image/upload/v1784519821/products/images/kldgrqnamoa5daffs4sz.jpg",
          "displayOrder": 1
        },
        {
          "url": "https://res.cloudinary.com/wcu2rrfb/image/upload/v1784519822/products/images/mlgwq5xhtwimadsxi0k1.jpg",
          "displayOrder": 2
        },
        {
          "url": "https://res.cloudinary.com/wcu2rrfb/image/upload/v1784519821/products/images/zzobj0zv3bdr6lqasktm.jpg",
          "displayOrder": 3
        },
        {
          "url": "https://res.cloudinary.com/wcu2rrfb/image/upload/v1784519822/products/images/dvc28kxpuulxuvwazwd7.jpg",
          "displayOrder": 4
        }
      ],
      "variants": [],
      "ageColors": [],
      "createdAt": "2026-07-20T03:57:17.573Z",
      "updatedAt": "2026-07-20T03:57:17.573Z",
      "__v": 0,
      "effectivePrice": 300,
      "basePrice": 300,
      "discountPrice": 280,
      "totalStock": 5,
      "isLowStock": true,
      "variantsCount": 1,
      "inventory": null,
      "averageRating": 0,
      "reviewCount": 0
    },
    {
      "dimensions": {
        "length": 0,
        "width": 0,
        "height": 0
      },
      "_id": "6a5d9c5c711099e370f40869",
      "name": "Train",
      "slug": "train",
      "description": "qwertyuiop",
      "category": {
        "_id": "6a5d9a7b711099e370f407da",
        "name": "Train",
        "slug": "train"
      },
      "price": 400,
      "compareAtPrice": 400,
      "subCategory": "6a5d9b83711099e370f4084d",
      "sku": "TW001",
      "ageGroup": [],
      "toyType": [],
      "skillDevelopment": [],
      "theme": [],
      "seoTitle": "",
      "seoDescription": "",
      "isActive": true,
      "barcode": "",
      "shortDescription": "",
      "costPrice": 0,
      "taxPercent": 0,
      "hsnCode": "",
      "shippingWeight": 0,
      "shippingClass": "",
      "minOrderQty": 1,
      "lowStockAlert": 5,
      "isFeatured": false,
      "isBestSeller": false,
      "isNewArrival": false,
      "isRecommended": false,
      "additionalInfo": [],
      "metaKeywords": [],
      "tags": [],
      "relatedProducts": [],
      "crossSellProducts": [],
      "upSellProducts": [],
      "isArchived": false,
      "isDeleted": false,
      "createdBy": "6a5af6ef5f4320a18f2fe4e0",
      "images": [
        {
          "url": "https://res.cloudinary.com/wcu2rrfb/image/upload/v1784519767/products/images/jqanlxf04zp7xkom9lro.jpg",
          "displayOrder": 1
        },
        {
          "url": "https://res.cloudinary.com/wcu2rrfb/image/upload/v1784519766/products/images/jeyzlavgqh3szdt0ibbv.jpg",
          "displayOrder": 2
        },
        {
          "url": "https://res.cloudinary.com/wcu2rrfb/image/upload/v1784519765/products/images/fc2h6l4gn11mxqjqdpng.jpg",
          "displayOrder": 3
        },
        {
          "url": "https://res.cloudinary.com/wcu2rrfb/image/upload/v1784519767/products/images/hylqrlouky86auncr2nq.jpg",
          "displayOrder": 4
        }
      ],
      "variants": [],
      "ageColors": [],
      "createdAt": "2026-07-20T03:56:12.362Z",
      "updatedAt": "2026-07-20T03:56:12.362Z",
      "__v": 0,
      "effectivePrice": 400,
      "basePrice": 400,
      "discountPrice": 350,
      "totalStock": 30,
      "isLowStock": false,
      "variantsCount": 1,
      "inventory": null,
      "averageRating": 0,
      "reviewCount": 0
    }
  ],
  "pagination": {
    "page": 1,
    "limit": 4,
    "total": 5,
    "pages": 2
  }
}